{
  "misc": {
    "ICON": {
      "type": "Image",
      "image": "images/icon.png"
    },
    "PIXEL_LOGO": {
      "type": "Image",
      "image": "images/pixel_logo.png"
    }
  },
  "ui": {
    "TOOLBAR_BACKGROUND": {
      "type": "Frame",
      "margin": [ 2, 0, 0, 0 ],
      "image": "images/toolbar_bg.png"
    },
    "CLOCK_BACKGROUND": {
      "type": "Frame",
      "margin": [ 0, 4, 0, 4 ],
      "image": "images/clock_bg.png"
    },
    "CARD_BACKGROUND" : {
      "type": "Frame",
      "margin": [ 2, 2, 2, 2 ],
      "image": "images/card_bg.png"
    },
    "THUMBNAIL_BACKGROUND" : {
      "type": "Frame",
      "margin": [ 1, 1, 1, 1 ],
      "image": "images/thumbnail_bg.png"
    }
  },
  "icon": {
    "JOYSTICK": {
      "type": "Image",
      "image": "images/icon_joystick.png"
    },
    "BUTTON_HOME": {
      "type": "Image",
      "image": "images/icon_home_button.png"
    }
  },
  "color" : {
    "background" : [77, 55, 0]
  },
  "metric" : {
    "WINDOW_WIDTH" : 200,
    "WINDOW_HEIGHT" : 200,
    "TOOLBAR_HEIGHT" : 17,
    "CLOCK_MARGIN" : 5,
    "CARD_ICON_SIZE" :  90,
    "CARD_MARGIN" : 10,
    "CARD_PADDING" :  5,
    "BUTTON_ICON_MARGIN" : 2
  }
}


